100 550
106.888 548.278
113.776 546.556
120.663 544.834
127.551 543.112
134.439 541.39
141.327 539.668
148.214 537.946
155.102 524.745
161.99 507.526
168.878 493.495
175.765 479.145
182.653 460.204
189.541 443.304
196.429 431.25
203.316 425
210.204 425
217.092 416.964
223.98 404.911
230.867 392.857
237.755 380.995
244.643 374.107
251.531 367.219
258.418 360.332
265.306 353.444
272.194 346.556
279.082 344.77
285.969 346.492
292.857 340.848
299.745 333.099
306.633 325.351
313.52 317.73
320.408 310.842
327.296 305.102
334.184 301.658
341.071 298.214
347.959 294.77
354.847 291.327
361.735 287.883
368.622 284.439
375.51 279.974
382.398 262.755
389.286 245.536
396.173 228.316
403.061 218.75
409.949 218.75
416.837 130.208
423.724 -10.4167
430.612 -151.042
437.5 -291.667
420.76 50 ### this point was added to allow a usefull masking of the contour in the limit plot; it was read of the interpolated line for the whole contour
