  80  260 0.001579
 190  700 0.001593
 220  490 0.001309
 240  260 0.002954
 320  940 0.001714
 360  250 0.004578
 370  710 0.001510
 380  480 0.002865
 400 1390 0.002885
 470  250 0.004913
 470 1160 0.002809
 500  940 0.002305
 510  480 0.003330
 510 1830 0.003764
 520  710 0.002740
 570 1610 0.003158
 580  250 0.005583
 610 1390 0.002757
 620  490 0.004413
 640 1160 0.003074
 640 2250 0.004760
 650  710 0.004242
 650  940 0.003691
 680  250 0.007618
 680 2050 0.004599
 730  490 0.005794
 730 1830 0.004275
 760 1610 0.003687
 770  710 0.005511
 780  250 0.010021
 780 2680 0.007278
 790  930 0.004182
 790 1160 0.003307
 790 1380 0.003489
 800 2480 0.006361
 840  480 0.006857
 850 2260 0.005171
 890  710 0.005431
 890 2040 0.004275
 910  940 0.004159
 920 1820 0.004395
 930 1160 0.004531
 930 1380 0.004876
 930 1600 0.004617
 930 2910 0.009340
 950  480 0.006503
 980 2690 0.008094
 990  250 0.012570
1000  710 0.005261
1010 2480 0.007062
1030  940 0.005211
1040 2260 0.005750
1060  480 0.006587
1060 1160 0.005966
1060 3340 0.014215
1070 1380 0.006730
1070 1820 0.004533
1080 1600 0.005728
1090  250 0.014861
1110  710 0.006367
1110 3120 0.011824
1140 2910 0.010459
1150  930 0.006469
1160  480 0.007934
1170 2690 0.009032
1180 1160 0.007352
1190  250 0.018034
1190 2480 0.007978
1200 1380 0.007468
1210 1600 0.006157
1210 2260 0.006591
1220  700 0.007652
1220 2040 0.005818
1260  930 0.007687
1290  250 0.021914
1300 1150 0.008093
1300 3120 0.013304
1320 2910 0.011522
1330  700 0.008889
1330 1370 0.007810
1340 1600 0.007574
1340 2690 0.010215
1360 1820 0.007681
1360 2040 0.007488
1360 2260 0.008224
1360 2470 0.009230
1370  480 0.011422
1370  930 0.008101
1400  250 0.026847
1410 1160 0.008107
1430  710 0.009309
1450 1370 0.009108
1460 3340 0.017700
1470  480 0.012309
1470 1600 0.009410
1480  930 0.008278
1480 3120 0.014869
1490 1820 0.009635
1500 2040 0.009712
1500 2690 0.011835
1500 2900 0.013074
1510 2250 0.010690
1510 2470 0.011403
1530 1150 0.009395
1540  700 0.009721
1560 1380 0.010768
1580 3970 0.027225
1590  930 0.009342
1590 1600 0.011409
1600  250 0.037549
1600 3760 0.024612
1620 1810 0.011912
1620 3550 0.022565
1630 2040 0.011984
1640  700 0.010884
1640 1150 0.010893
1640 3330 0.019706
1650 2250 0.013704
1650 2470 0.014458
1650 3120 0.016609
1660 2680 0.014845
1660 2900 0.015436
1680  470 0.015424
1680 1370 0.012915
1700  930 0.010886
1710 1600 0.013595
1740 1820 0.014381
1750  700 0.012940
1750 1150 0.012697
1760 2040 0.014823
1780 2250 0.016707
1780 3760 0.027320
1790 1380 0.015079
1790 2470 0.018093
1790 3550 0.024992
1800 2690 0.018587
1800 3120 0.019505
1800 3330 0.022095
1810  920 0.012711
1810 2900 0.018780
1830 1600 0.016287
1850  700 0.014824
1860 1150 0.015033
1860 1820 0.017170
1880  480 0.021400
1890 2030 0.018289
1910  930 0.014743
1910 1370 0.017618
1910 2250 0.020459
1930 2470 0.022542
1940 2680 0.023046
1950  700 0.017047
1950 1590 0.019029
1950 2900 0.023417
1950 3120 0.023936
1950 3330 0.026229
1950 3540 0.027817
1970 1150 0.017272
1980  480 0.025131
1980 1810 0.020102
2010 2030 0.021683
2020  920 0.016954
2020 1370 0.020344
2040 2250 0.024654
2060 1590 0.022144
2060 2460 0.027314
2080  480 0.029440
2080 1150 0.020022
2080 2680 0.028011
2100 1810 0.023564
2100 3110 0.029454
2100 3330 0.031731
2120  930 0.019681
2130 1370 0.023763
2130 2030 0.025161
2160  700 0.023255
2160 2250 0.029113
2170 1590 0.025380
2180 1150 0.022782
2190  470 0.035326
2210 1810 0.027321
2210 2680 0.033830
2220 2900 0.034629
2230  920 0.023123
2240 1370 0.027248
2240 3110 0.036159
2250 2030 0.029667
2260  700 0.027259
2280 1590 0.029035
2280 2250 0.034314
2290 1150 0.026189
2310 2460 0.038377
2330  920 0.025922
2330 1810 0.032031
2330 2680 0.039970
2340 1370 0.031208
2350 2900 0.041324
2360  700 0.031723
2370 2020 0.034353
2390 1150 0.029870
2390 1590 0.033256
2400 2250 0.040241
2430 2460 0.045043
2440  920 0.030761
2440 1810 0.036291
2450 1370 0.035301
2460 2680 0.047507
2470  700 0.037095
2480 2030 0.039368
2490  470 0.057028
2500 1150 0.034684
2500 1590 0.038786
2520 2240 0.046650
2540  920 0.035007
2550 1810 0.042166
2550 2460 0.052214
2560 1370 0.040785
2570  700 0.043616
2590 2030 0.045353
2600 1150 0.039522
2610 1590 0.044302
2630 2250 0.053438
2640  920 0.039736
2660 1370 0.046082
2660 1810 0.047706
2670  700 0.049733
2710 1140 0.045438
2720 1590 0.050157
2770 1370 0.052481
2770 1810 0.054124
2810 1150 0.051339
2830 1580 0.057235
2850  920 0.053121
2870  700 0.066675
2880 1360 0.059972
2920 1140 0.059636
